{
	"code": "1",
	"message": null,
	"content": {
		"pageIndex": 1,
		"pageSize": 10,
		"totalPage": 3,
		"totalCount": 28,
		"orders": [{
			"orderNo": "PPD201710180001380",
			"sellerOrderNo": "201710CP18632291",
			"expressAddress": "北京朝阳区三环以内545254",
			"consignee": "542534",
			"phoneNo": "18004899091",
			"productName": "",
			"orderAmount": 150,
			"orderStatus": 100,
			"orderStatusTxt": "待推送",
			"orderCreateTime": "2017-10-08 14:15:23",
			"sellerName": "erge",
			"orderNote": "车上说是"
		}]
	}
}
